…
I did something in the last blog post that made the whole thing not work.

library(babynames)

babynames %>% filter(name == "Annika")

## # A tibble: 56 x 5
##     year sex   name       n       prop
##    <dbl> <chr> <chr>  <int>      <dbl>
##  1  1961 F     Annika     6 0.00000289
##  2  1962 F     Annika     6 0.00000296
##  3  1964 F     Annika     7 0.00000358
##  4  1965 F     Annika     6 0.00000328
##  5  1966 F     Annika     9 0.00000513
##  6  1967 F     Annika    12 0.00000699
##  7  1968 F     Annika    14 0.00000819
##  8  1969 F     Annika    15 0.00000851
##  9  1970 F     Annika    24 0.0000131 
## 10  1971 F     Annika    23 0.0000131 
## # … with 46 more rows
